{
  "files": {
    "main.css": "/static/css/main.9236403f.chunk.css",
    "main.js": "/static/js/main.e34a7806.chunk.js",
    "main.js.map": "/static/js/main.e34a7806.chunk.js.map",
    "runtime-main.js": "/static/js/runtime-main.3baf8c9b.js",
    "runtime-main.js.map": "/static/js/runtime-main.3baf8c9b.js.map",
    "static/css/2.d15302da.chunk.css": "/static/css/2.d15302da.chunk.css",
    "static/js/2.7b02dbe9.chunk.js": "/static/js/2.7b02dbe9.chunk.js",
    "static/js/2.7b02dbe9.chunk.js.map": "/static/js/2.7b02dbe9.chunk.js.map",
    "index.html": "/index.html",
    "precache-manifest.8d9d9da6ebbdd6e047cf1b3e94cec568.js": "/precache-manifest.8d9d9da6ebbdd6e047cf1b3e94cec568.js",
    "service-worker.js": "/service-worker.js",
    "static/css/2.d15302da.chunk.css.map": "/static/css/2.d15302da.chunk.css.map",
    "static/css/main.9236403f.chunk.css.map": "/static/css/main.9236403f.chunk.css.map",
    "static/js/2.7b02dbe9.chunk.js.LICENSE.txt": "/static/js/2.7b02dbe9.chunk.js.LICENSE.txt"
  },
  "entrypoints": [
    "static/js/runtime-main.3baf8c9b.js",
    "static/css/2.d15302da.chunk.css",
    "static/js/2.7b02dbe9.chunk.js",
    "static/css/main.9236403f.chunk.css",
    "static/js/main.e34a7806.chunk.js"
  ]
}